W26188524,W124678
W25361347,W122614
W26135871,W10752
W25323118,W165722
W15911399,W10231
W26124693,W121252
W26155169,W120190
W23996093,W10231
W26221714,W338597
W18626823,W164646
W25520383,W23150
W25858298,W163104
W10754551,W108745
W24402824,W10231
W16812612,W123616
W16574532,W145104
W23821360,W128071
W18671547,W140852
W22644206,W141705
W25703150,W131743
W25023933,W140492
